{
  "project_info": {
    "project_number": "237853399947",
    "firebase_url": "https://limo-f10d3.firebaseio.com",
    "project_id": "limo-f10d3",
    "storage_bucket": "limo-f10d3.appspot.com"
  },
  "client": [
    {
      "client_info": {
        "mobilesdk_app_id": "1:237853399947:android:520cf2b091b7ee1a542d8e",
        "android_client_info": {
          "package_name": "com.example.limo"
        }
      },
      "oauth_client": [
        {
          "client_id": "237853399947-vp0kdsbt0ml2gfohk8nso7fe9of0o3se.apps.googleusercontent.com",
          "client_type": 3
        }
      ],
      "api_key": [
        {
          "current_key": "AIzaSyAML_zv65mUhjBREAimQRIsJ0rY_yo4mf8"
        }
      ],
      "services": {
        "appinvite_service": {
          "other_platform_oauth_client": [
            {
              "client_id": "237853399947-vp0kdsbt0ml2gfohk8nso7fe9of0o3se.apps.googleusercontent.com",
              "client_type": 3
            }
          ]
        }
      }
    }
  ],
  "configuration_version": "1"
}